…
``` r
library(fpp2)
library(tidyverse)
library(ggplot2)
library(urca)
library(seasonal)
```

``` r
dataset <- read_csv("./Book4.csv",show_col_types = FALSE)

dataset
```

    ## # A tibble: 302 × 2
    ##    Date                `Count of Qty`
    ##    <chr>                        <dbl>
    ##  1 16-01-17 - 22-01-17              4
    ##  2 23-01-17 - 29-01-17             23
    ##  3 30-01-17 - 05-02-17             15
    ##  4 06-02-17 - 12-02-17             19
    ##  5 13-02-17 - 19-02-17             20
    ##  6 20-02-17 - 26-02-17             15
    ##  7 27-02-17 - 05-03-17             17
    ##  8 06-03-17 - 12-03-17             17
    ##  9 1                                0
    ## 10 20-03-17 - 26-03-17             15
    ## # … with 292 more rows
…
